…
  samp %>% 
    t.test(mu = 0, alternative = 'two.sided', paired = FALSE, conf.level = 0.95) %>%
    broom::tidy() %>% 
    select(estimate, p.value) %>% 
    mutate(
      decision = case_when(p.value < 0.05 ~ "Reject", p.value >= 0.05 ~ "Accept")
    )
}

rerun(5000, t_test(mu = 0)) %>% bind_rows()
```

    ## # A tibble: 5,000 x 3
    ##    estimate p.value decision
    ##       <dbl>   <dbl> <chr>   
    ##  1  -0.0336  0.971  Accept  
    ##  2   0.885   0.227  Accept  
    ##  3   0.357   0.671  Accept  
    ##  4  -1.79    0.0813 Accept  
    ##  5  -0.0998  0.918  Accept  
    ##  6  -0.0896  0.906  Accept  
    ##  7  -0.381   0.561  Accept  
    ##  8   0.924   0.352  Accept  
    ##  9   0.345   0.742  Accept  
    ## 10   0.0136  0.990  Accept  
    ## # … with 4,990 more rows
…
